Bechdel
…
In order to evaluate how return on investment varies among movies that pass and fail the Bechdel test, we’ll first create a new variable called roi as the ratio of the gross to budget.

bechdel90_13 <- bechdel90_13 %>%
  mutate(roi = (intgross_2013 + domgross_2013) / budget_2013)

Let’s see which movies have the highest return on investment.

bechdel90_13 %>%
  arrange(desc(roi)) %>% 
  select(title, roi, year)

# A tibble: 1,615 × 3
   title                     roi  year
   <chr>                   <dbl> <int>
 1 Paranormal Activity      671.  2007
 2 The Blair Witch Project  648.  1999
 3 El Mariachi              583.  1992
 4 Clerks.                  258.  1994
 5 In the Company of Men    231.  1997
 6 Napoleon Dynamite        227.  2004
 7 Once                     190.  2006
 8 The Devil Inside         155.  2012
 9 Primer                   142.  2004
10 Fireproof                134.  2008
# … with 1,605 more rows
…
